projectKey=sample
serverUrl=http://172.31.255.75:9000
serverVersion=8.6.0.39681
dashboardUrl=http://172.31.255.75:9000/dashboard?id=sample
ceTaskId=AXbdx5oIKWrhK2QIacRX
ceTaskUrl=http://172.31.255.75:9000/api/ce/task?id=AXbdx5oIKWrhK2QIacRX
